Stat-641-project
…
Attaching package: 'janitor'

The following objects are masked from 'package:stats':

    chisq.test, fisher.test

library(knitr)
dat<-abalone
dat<-dat %>% 
  clean_names()
dat

# A tibble: 4,177 × 11
   sex   length diameter height whole_weight shucked_weight viscera_weight
   <chr>  <dbl>    <dbl>  <dbl>        <dbl>          <dbl>          <dbl>
 1 M      0.455    0.365  0.095        0.514         0.224          0.101 
 2 M      0.35     0.265  0.09         0.226         0.0995         0.0485
 3 F      0.53     0.42   0.135        0.677         0.256          0.142 
 4 M      0.44     0.365  0.125        0.516         0.216          0.114 
 5 I      0.33     0.255  0.08         0.205         0.0895         0.0395
 6 I      0.425    0.3    0.095        0.352         0.141          0.0775
 7 F      0.53     0.415  0.15         0.778         0.237          0.142 
 8 F      0.545    0.425  0.125        0.768         0.294          0.150 
 9 M      0.475    0.37   0.125        0.509         0.216          0.112 
10 F      0.55     0.44   0.15         0.894         0.314          0.151 
# ℹ 4,167 more rows
# ℹ 4 more variables: shell_weight <dbl>, rings <dbl>, sex_2 <fct>,
#   sex_numeric <dbl>

df_males_females<-dat %>% 
  select(sex,whole_weight) %>% 
  filter(sex%in% c("F", "M"))
df_males_females

# A tibble: 2,835 × 2
   sex   whole_weight
   <chr>        <dbl>
 1 M            0.514
 2 M            0.226
 3 F            0.677
 4 M            0.516
 5 F            0.778
 6 F            0.768
 7 M            0.509
 8 F            0.894
 9 F            0.606
10 M            0.406
# ℹ 2,825 more rows
…
